digraph  {
0 [class="start active", fillcolor=green, fontsize=12, label=START, style=filled];
"-1" [class=end, fillcolor=red, fontsize=12, label=END, style=filled];
1 [class=active, fontsize=12, label=utter_greet];
2 [class=active, fontsize=12, label=utter_ask_registry];
3 [class=active, fontsize=12, label=action_check];
4 [class=active, fontsize=12, label=utter_ask_how_long];
5 [class=active, fontsize=12, label=utter_ask_pre_service];
6 [class=active, fontsize=12, label=utter_ask_infrastructure];
7 [class="", fontsize=12, label=utter_ask_burst];
8 [class="", fontsize=12, label=utter_ask_check];
9 [class="", fontsize=12, label=utter_start_service];
10 [class="", fontsize=12, label=action_sendAssistance];
11 [class="", fontsize=12, label=utter_goodbye];
28 [class="dashed active", fontsize=12, label=utter_ask_infrastructure_];
29 [class="", fontsize=12, label=utter_ask_burst];
80 [class="intent active", fillcolor=lightblue, label=Oi, shape=rect, style=filled];
81 [class="intent active", fillcolor=lightblue, label="Estou sem luz", shape=rect, style=filled];
82 [class="intent active", fillcolor=lightblue, label=200001, shape=rect, style=filled];
83 [class="intent active", fillcolor=lightblue, label="Sim est", shape=rect, style=filled];
84 [class="intent active", fillcolor=lightblue, label="1 hr", shape=rect, style=filled];
85 [class="intent active", fillcolor=lightblue, label=No, shape=rect, style=filled];
86 [class=intent, fillcolor=lightblue, label=agree, shape=rect, style=filled];
87 [class=intent, fillcolor=lightblue, label=refuse, shape=rect, style=filled];
88 [class="intent active", fillcolor=lightblue, label="Sim h", shape=rect, style=filled];
89 [class=intent, fillcolor=lightblue, label=refuse, shape=rect, style=filled];
90 [class=intent, fillcolor=lightblue, label=refuse, shape=rect, style=filled];
91 [class=intent, fillcolor=lightblue, label=agree, shape=rect, style=filled];
92 [class=intent, fillcolor=lightblue, label=agree, shape=rect, style=filled];
93 [class=intent, fillcolor=lightblue, label=refuse, shape=rect, style=filled];
94 [class=intent, fillcolor=lightblue, label=goodbye, shape=rect, style=filled];
95 [class=intent, fillcolor=lightblue, label=inform, shape=rect, style=filled];
96 [class=intent, fillcolor=lightblue, label=agree, shape=rect, style=filled];
0 -> 80  [class=active, key=0];
1 -> 81  [class=active, key=0];
2 -> 82  [class=active, key=0];
3 -> 83  [class=active, key=0];
4 -> 84  [class=active, key=0];
5 -> 85  [class=active, key=0];
5 -> 86  [class="", key=0];
6 -> 87  [class="", key=0];
6 -> 88  [class=active, key=0];
6 -> 89  [class="", key=0];
7 -> 90  [class="", key=0];
7 -> 91  [class="", key=0];
8 -> 92  [class="", key=0];
8 -> 93  [class="", key=0];
9 -> 10  [class="", key=NONE, label=""];
10 -> 94  [class="", key=0];
11 -> "-1"  [class="", key=NONE, label=""];
28 -> 95  [class="", key=0];
29 -> 96  [class="", key=0];
80 -> 1  [class=active, key=0];
81 -> 2  [class=active, key=0];
82 -> 3  [class=active, key=0];
83 -> 4  [class=active, key=0];
84 -> 5  [class=active, key=0];
85 -> 6  [class=active, key=0];
86 -> 6  [class="", key=0];
87 -> 7  [class="", key=0];
88 -> 28  [class=active, key=0];
89 -> 29  [class="", key=0];
90 -> 8  [class="", key=0];
91 -> 9  [class="", key=0];
92 -> 9  [class="", key=0];
93 -> 11  [class="", key=0];
94 -> 11  [class="", key=0];
95 -> 29  [class="", key=0];
96 -> 9  [class="", key=0];
}
